[gd_scene load_steps=2 format=3 uid="uid://crfq8qaficcbb"]

[ext_resource type="Script" path="res://ai.gd" id="1_6b5gk"]

[node name="AI" type="Node2D"]
script = ExtResource("1_6b5gk")
enabled = true

[node name="Timer" type="Timer" parent="."]
unique_name_in_owner = true
wait_time = 5.0
autostart = true

[connection signal="timeout" from="Timer" to="." method="_on_eval_behavior"]
