[gd_scene load_steps=2 format=3 uid="uid://obxk1i0kn3p7"]

[ext_resource type="Script" path="res://input_controller.gd" id="1_qd8jk"]

[node name="NullController" type="Node"]
script = ExtResource("1_qd8jk")
